[
    {
        "school":"Formación autodidacta",
        "degree":"Actualización de conocimientos de los programas Sketchup, V-Ray y Blender",
        "range":"2018 - actualidad"
    },
    {
        "school":"AMES Formación",
        "degree":"Curso Calidad de servicio y atención al cliente",
        "range": "2015 - 2015"
    },
    {
        "school":"ICA Formación",
        "degree":"Curso Adobe Photoshop",
        "range": "2013 - 2013"
    },
    {
        "school":"EASD Antonio Faílde de Ourense",
        "degree":"Técnica Superior de Artes plásticas y Diseño en proyectos y dirección de obras de decoración",
        "range":"2005 - 2007"
    },
    {
        "school":"Instituto de Educación Secundaria Politécnico",
        "degree":"Título de Bachiller en la modalidad de Artes",
        "range":"2003 - 2005"
    }
]
